# 3ds Max Wavefront OBJ Exporter v0.97b - (c)2007 guruware
# File Created: 16.11.2020 12:45:02

#
# object Cylinder003
#

v  5.3581 27.7072 -7.4678
v  5.3581 28.2831 -8.6966
v  9.9466 28.2831 -8.6966
v  9.9466 27.7072 -7.4678
v  5.3581 29.5592 -9.1583
v  9.9466 29.5592 -9.1583
v  5.3581 30.7880 -8.5824
v  9.9466 30.7880 -8.5824
v  5.3581 31.2497 -7.3063
v  9.9466 31.2497 -7.3063
v  5.3581 30.6738 -6.0775
v  9.9466 30.6738 -6.0775
v  5.3581 29.3977 -5.6158
v  9.9466 29.3977 -5.6158
v  5.3581 28.1689 -6.1917
v  9.9466 28.1689 -6.1917
v  5.2412 29.4680 -7.1575
v  5.2412 29.6334 -7.2174
v  5.2412 29.7080 -7.3766
v  5.2412 29.2490 -7.3975
v  5.2412 29.6482 -7.5420
v  5.2412 29.4889 -7.6166
v  5.2412 29.3236 -7.5567
v  5.2412 29.3088 -7.2322
v  10.0635 29.3236 -7.5567
v  10.0635 29.4889 -7.6166
v  10.0635 29.6482 -7.5420
v  10.0635 29.3088 -7.2322
v  10.0635 29.7080 -7.3766
v  10.0635 29.6334 -7.2174
v  10.0635 29.4680 -7.1575
v  10.0635 29.2490 -7.3975
v  5.3581 29.2490 -7.3975
v  5.3581 29.3236 -7.5567
v  5.3581 29.3088 -7.2322
v  5.3581 29.4680 -7.1575
v  5.3581 29.6334 -7.2174
v  5.3581 29.7080 -7.3766
v  5.3581 29.6482 -7.5420
v  5.3581 29.4889 -7.6166
v  9.9466 29.3236 -7.5567
v  9.9466 29.2490 -7.3975
v  9.9466 29.4889 -7.6166
v  9.9466 29.6482 -7.5420
v  9.9466 29.7080 -7.3766
v  9.9466 29.6334 -7.2174
v  9.9466 29.4680 -7.1575
v  9.9466 29.3088 -7.2322
v  5.2396 29.5172 -7.2673
v  5.2204 29.4873 -7.3026
v  5.2204 31.1021 -8.6704
v  5.2396 31.1320 -8.6352
v  5.1742 29.4749 -7.3172
v  5.1742 31.0897 -8.6850
v  5.1280 29.4873 -7.3026
v  5.1280 31.1021 -8.6704
v  5.1089 29.5172 -7.2673
v  5.1089 31.1320 -8.6352
v  5.1280 29.5470 -7.2320
v  5.1280 31.1618 -8.5999
v  5.1742 29.5594 -7.2174
v  5.1742 31.1742 -8.5853
v  5.2204 29.5470 -7.2320
v  5.2204 31.1618 -8.5999
v  10.1959 29.5172 -7.2673
v  10.1768 29.4873 -7.3026
v  10.1768 31.1021 -8.6704
v  10.1959 31.1320 -8.6352
v  10.1306 29.4749 -7.3172
v  10.1306 31.0897 -8.6850
v  10.0844 29.4873 -7.3026
v  10.0844 31.1021 -8.6704
v  10.0653 29.5172 -7.2673
v  10.0653 31.1320 -8.6352
v  10.0844 29.5470 -7.2320
v  10.0844 31.1618 -8.5999
v  10.1306 29.5594 -7.2174
v  10.1306 31.1742 -8.5853
v  10.1768 29.5470 -7.2320
v  10.1768 31.1618 -8.5999
# 80 vertices

vn 0.0000 -0.9990 -0.0455
vn 0.0000 -0.6742 -0.7386
vn -0.0000 0.0455 -0.9990
vn -0.0000 0.7386 -0.6742
vn -0.0000 0.9990 0.0455
vn -0.0000 0.6742 0.7386
vn 0.0000 -0.0455 0.9990
vn 0.0000 -0.7386 0.6742
vn -1.0000 -0.0000 -0.0000
vn 1.0000 0.0000 0.0000
vn 0.0000 -0.9055 -0.4244
vn 0.0000 -0.9403 0.3402
vn 0.0000 -0.4244 0.9055
vn -0.0000 0.3402 0.9403
vn -0.0000 0.9055 0.4244
vn -0.0000 0.9403 -0.3402
vn -0.0000 0.4244 -0.9055
vn 0.0000 -0.3402 -0.9403
vn 1.0000 -0.0000 -0.0000
vn 0.5477 -0.5408 -0.6384
vn 0.0000 -0.6464 -0.7630
vn -0.5477 -0.5408 -0.6384
vn -1.0000 0.0000 0.0000
vn -0.5477 0.5408 0.6384
vn -0.0000 0.6464 0.7630
vn 0.5477 0.5408 0.6384
vn 0.0000 -0.7630 0.6464
vn -0.0000 -0.7630 0.6464
vn -0.0000 0.7630 -0.6464
vn 1.0000 -0.0000 0.0000
vn -0.0000 -0.6464 -0.7630
vn -1.0000 0.0000 -0.0000
# 32 vertex normals

vt 0.7500 0.0000 1.0000
vt 0.8750 0.0000 1.0000
vt 0.8750 1.0000 1.0000
vt 0.7500 1.0000 1.0000
vt 1.0000 0.0000 1.0000
vt 1.0000 1.0000 1.0000
vt 0.0000 0.0000 1.0000
vt 0.1250 0.0000 1.0000
vt 0.1250 1.0000 1.0000
vt 0.0000 1.0000 1.0000
vt 0.2500 0.0000 1.0000
vt 0.2500 1.0000 1.0000
vt 0.3750 0.0000 1.0000
vt 0.3750 1.0000 1.0000
vt 0.5000 0.0000 1.0000
vt 0.5000 1.0000 1.0000
vt 0.6250 0.0000 1.0000
vt 0.6250 1.0000 1.0000
vt 1.0000 0.5000 -0.2500
vt 0.8536 0.1464 -0.2500
vt 0.5000 0.0000 -0.2500
vt 0.5000 1.0000 -0.2500
vt 0.1464 0.1464 -0.2500
vt 0.0000 0.5000 -0.2500
vt 0.1464 0.8536 -0.2500
vt 0.8536 0.8536 -0.2500
vt 0.1464 0.8536 0.2500
vt 0.0000 0.5000 0.2500
vt 0.1464 0.1464 0.2500
vt 0.8536 0.8536 0.2500
vt 0.5000 0.0000 0.2500
vt 0.8536 0.1464 0.2500
vt 1.0000 0.5000 0.2500
vt 0.5000 1.0000 0.2500
# 34 texture coords

g Cylinder003
s 8
f 1/1/1 2/2/2 3/3/2 4/4/1 
f 2/2/2 5/5/3 6/6/3 3/3/2 
f 5/7/3 7/8/4 8/9/4 6/10/3 
f 7/8/4 9/11/5 10/12/5 8/9/4 
f 9/11/5 11/13/6 12/14/6 10/12/5 
f 11/13/6 13/15/7 14/16/7 12/14/6 
f 13/15/7 15/17/8 16/18/8 14/16/7 
f 15/17/8 1/1/1 4/4/1 16/18/8 
s 1
f 17/19/9 18/20/9 19/21/9 20/22/9 
f 19/21/9 21/23/9 22/24/9 20/22/9 
f 22/24/9 23/25/9 20/22/9 
f 24/26/9 17/19/9 20/22/9 
f 25/27/10 26/28/10 27/29/10 28/30/10 
f 27/29/10 29/31/10 30/32/10 28/30/10 
f 30/32/10 31/33/10 28/30/10 
f 32/34/10 25/27/10 28/30/10 
s off
f 2/25/9 1/22/9 33/22/9 34/25/9 
f 1/22/9 15/26/9 35/26/9 33/22/9 
f 15/26/9 13/19/9 36/19/9 35/26/9 
f 13/19/9 11/20/9 37/20/9 36/19/9 
f 11/20/9 9/21/9 38/21/9 37/20/9 
f 9/21/9 7/23/9 39/23/9 38/21/9 
f 7/23/9 5/24/9 40/24/9 39/23/9 
f 5/24/9 2/25/9 34/25/9 40/24/9 
f 4/34/10 3/27/10 41/27/10 42/34/10 
f 3/27/10 6/28/10 43/28/10 41/27/10 
f 6/28/10 8/29/10 44/29/10 43/28/10 
f 8/29/10 10/31/10 45/31/10 44/29/10 
f 10/31/10 12/32/10 46/32/10 45/31/10 
f 12/32/10 14/33/10 47/33/10 46/32/10 
f 14/33/10 16/30/10 48/30/10 47/33/10 
f 16/30/10 4/34/10 42/34/10 48/30/10 
f 34/25/11 33/22/11 20/22/11 23/25/11 
f 33/22/12 35/26/12 24/26/12 20/22/12 
f 35/26/13 36/19/13 17/19/13 24/26/13 
f 36/19/14 37/20/14 18/20/14 17/19/14 
f 37/20/15 38/21/15 19/21/15 18/20/15 
f 38/21/16 39/23/16 21/23/16 19/21/16 
f 39/23/17 40/24/17 22/24/17 21/23/17 
f 40/24/18 34/25/18 23/25/18 22/24/18 
f 42/34/11 41/27/11 25/27/11 32/34/11 
f 41/27/18 43/28/18 26/28/18 25/27/18 
f 43/28/17 44/29/17 27/29/17 26/28/17 
f 44/29/16 45/31/16 29/31/16 27/29/16 
f 45/31/15 46/32/15 30/32/15 29/31/15 
f 46/32/14 47/33/14 31/33/14 30/32/14 
f 47/33/13 48/30/13 28/30/13 31/33/13 
f 48/30/12 42/34/12 32/34/12 28/30/12 
s 8
f 49/1/19 50/2/20 51/3/20 52/4/10 
f 50/2/20 53/5/21 54/6/21 51/3/20 
f 53/7/21 55/8/22 56/9/22 54/10/21 
f 55/8/22 57/11/23 58/12/23 56/9/22 
f 57/11/23 59/13/24 60/14/24 58/12/23 
f 59/13/24 61/15/25 62/16/25 60/14/24 
f 61/15/25 63/17/26 64/18/26 62/16/25 
f 63/17/26 49/1/19 52/4/10 64/18/26 
s 1
f 61/19/27 59/20/27 57/21/27 49/22/28 
f 57/21/27 55/23/27 53/24/27 49/22/28 
f 53/24/27 50/25/28 49/22/28 
f 63/26/28 61/19/27 49/22/28 
f 51/27/29 54/28/29 56/29/29 64/30/29 
f 56/29/29 58/31/29 60/32/29 64/30/29 
f 60/32/29 62/33/29 64/30/29 
f 52/34/29 51/27/29 64/30/29 
s 8
f 65/1/30 66/2/20 67/3/20 68/4/10 
f 66/2/20 69/5/21 70/6/31 67/3/20 
f 69/7/21 71/8/22 72/9/22 70/10/31 
f 71/8/22 73/11/32 74/12/23 72/9/22 
f 73/11/32 75/13/24 76/14/24 74/12/23 
f 75/13/24 77/15/25 78/16/25 76/14/24 
f 77/15/25 79/17/26 80/18/26 78/16/25 
f 79/17/26 65/1/30 68/4/10 80/18/26 
s 1
f 77/19/27 75/20/27 73/21/27 65/22/28 
f 73/21/27 71/23/27 69/24/27 65/22/28 
f 69/24/27 66/25/28 65/22/28 
f 79/26/28 77/19/27 65/22/28 
f 67/27/29 70/28/29 72/29/29 80/30/29 
f 72/29/29 74/31/29 76/32/29 80/30/29 
f 76/32/29 78/33/29 80/30/29 
f 68/34/29 67/27/29 80/30/29 
# 68 polygons - 12 triangles

